simulation/qsim/clkgen.msim.vcd
$comment
	File created using the following command:
		vcd file clkgen.msim.vcd -direction
$end
$date
	Wed Feb 14 12:20:48 2024
$end
$version
	ModelSim Version 10.1d
$end
$timescale
	1ps
$end
$scope module clkgen_vlg_vec_tst $end
$var reg 1 ! button $end
$var reg 1 " clk $end
$var wire 1 # exit $end
$var wire 1 $ exitbutton $end
$var wire 1 % ledbutton $end
$var wire 1 & sampler $end
$scope module i1 $end
$var wire 1 ' gnd $end
$var wire 1 ( vcc $end
$var wire 1 ) unknown $end
$var tri1 1 * devclrn $end
$var tri1 1 + devpor $end
$var tri1 1 , devoe $end
$var wire 1 - cnt[9]~32_combout $end
$var wire 1 . cnt[11]~36_combout $end
$var wire 1 / exit~2_combout $end
$var wire 1 0 clk~input_o $end
$var wire 1 1 genpll|altpll_component|auto_generated|wire_pll1_fbout $end
$var wire 1 2 genpll|altpll_component|auto_generated|wire_pll1_clk[0]~clkctrl_outclk $end
$var wire 1 3 cnt[0]~14_combout $end
$var wire 1 4 cnt[12]~39 $end
$var wire 1 5 cnt[13]~40_combout $end
$var wire 1 6 LessThan0~0_combout $end
$var wire 1 7 cnt[0]~15 $end
$var wire 1 8 cnt[1]~17 $end
$var wire 1 9 cnt[2]~18_combout $end
$var wire 1 : cnt[2]~19 $end
$var wire 1 ; cnt[3]~21 $end
$var wire 1 < cnt[4]~23 $end
$var wire 1 = cnt[5]~24_combout $end
$var wire 1 > cnt[5]~25 $end
$var wire 1 ? cnt[6]~26_combout $end
$var wire 1 @ cnt[6]~27 $end
$var wire 1 A cnt[7]~28_combout $end
$var wire 1 B cnt[7]~29 $end
$var wire 1 C cnt[8]~30_combout $end
$var wire 1 D cnt[8]~31 $end
$var wire 1 E cnt[9]~33 $end
$var wire 1 F cnt[10]~34_combout $end
$var wire 1 G cnt[10]~35 $end
$var wire 1 H cnt[11]~37 $end
$var wire 1 I cnt[12]~38_combout $end
$var wire 1 J cnt[1]~16_combout $end
$var wire 1 K exit~0_combout $end
$var wire 1 L cnt[4]~22_combout $end
$var wire 1 M cnt[3]~20_combout $end
$var wire 1 N exit~1_combout $end
$var wire 1 O exit~3_combout $end
$var wire 1 P exit~reg0_q $end
$var wire 1 Q clk~inputclkctrl_outclk $end
$var wire 1 R button~input_o $end
$var wire 1 S exitbutton~0_combout $end
$var wire 1 T exitbutton~reg0_q $end
$var wire 1 U ledbutton~0_combout $end
$var wire 1 V ledbutton~reg0_q $end
$var wire 1 W cnt [13] $end
$var wire 1 X cnt [12] $end
$var wire 1 Y cnt [11] $end
$var wire 1 Z cnt [10] $end
$var wire 1 [ cnt [9] $end
$var wire 1 \ cnt [8] $end
$var wire 1 ] cnt [7] $end
$var wire 1 ^ cnt [6] $end
$var wire 1 _ cnt [5] $end
$var wire 1 ` cnt [4] $end
$var wire 1 a cnt [3] $end
$var wire 1 b cnt [2] $end
$var wire 1 c cnt [1] $end
$var wire 1 d cnt [0] $end
$var wire 1 e genpll|altpll_component|auto_generated|wire_pll1_clk [4] $end
$var wire 1 f genpll|altpll_component|auto_generated|wire_pll1_clk [3] $end
$var wire 1 g genpll|altpll_component|auto_generated|wire_pll1_clk [2] $end
$var wire 1 h genpll|altpll_component|auto_generated|wire_pll1_clk [1] $end
$var wire 1 i genpll|altpll_component|auto_generated|wire_pll1_clk [0] $end
$var wire 1 j genpll|altpll_component|auto_generated|pll1_CLK_bus [4] $end
$var wire 1 k genpll|altpll_component|auto_generated|pll1_CLK_bus [3] $end
$var wire 1 l genpll|altpll_component|auto_generated|pll1_CLK_bus [2] $end
$var wire 1 m genpll|altpll_component|auto_generated|pll1_CLK_bus [1] $end
$var wire 1 n genpll|altpll_component|auto_generated|pll1_CLK_bus [0] $end
$upscope $end
$upscope $end
$enddefinitions $end
#0
$dumpvars
0!
0"
0#
0$
0%
x&
0'
1(
x)
1*
1+
1,
0-
0.
0/
00
x1
x2
13
04
05
06
07
18
09
0:
1;
0<
0=
1>
0?
0@
0A
1B
0C
0D
1E
0F
0G
1H
0I
0J
0K
0L
0M
0N
1O
0P
0Q
0R
1S
0T
1U
0V
0d
0c
0b
0a
0`
0_
0^
0]
0\
0[
0Z
0Y
0X
0W
xi
xh
xg
xf
xe
xn
xm
xl
xk
xj
$end
#1000
11
#5000
1"
0&
10
1Q
1V
1T
1%
1$
#10000
0"
1&
00
0Q
#11000
01
#15000
1"
0&
10
1Q
#20000
0"
1&
00
0Q
#21000
11
#25000
1"
0&
10
1Q
#30000
0"
1&
00
0Q
#31000
01
#35000
1"
0&
10
1Q
#40000
0"
1&
00
0Q
#41000
11
#45000
1"
0&
10
1Q
#50000
1!
0"
1R
1&
00
0Q
0U
0S
#51000
01
#55000
1"
0&
10
1Q
0V
0T
0%
0$
#60000
0"
1&
00
0Q
#61000
11
#65000
1"
0&
10
1Q
#70000
0"
1&
00
0Q
#71000
01
#75000
1"
0&
10
1Q
#80000
0"
1&
00
0Q
#81000
11
#85000
1"
0&
10
1Q
#90000
0"
1&
00
0Q
#91000
01
#95000
1"
0&
10
1Q
#100000
0!
0"
0R
1&
00
0Q
1U
1S
#101000
11
#105000
1"
0&
10
1Q
1V
1T
1%
1$
#110000
0"
1&
00
0Q
#111000
01
#115000
1"
0&
10
1Q
#120000
0"
1&
00
0Q
#121000
11
#125000
1"
0&
10
1Q
#130000
0"
1&
00
0Q
#131000
01
#135000
1"
0&
10
1Q
#140000
0"
1&
00
0Q
#141000
11
#145000
1"
0&
10
1Q
#150000
1!
0"
1R
1&
00
0Q
0U
0S
#151000
01
#155000
1"
0&
10
1Q
0V
0T
0%
0$
#160000
0"
1&
00
0Q
#161000
11
#165000
1"
0&
10
1Q
#170000
0"
1&
00
0Q
#171000
01
#175000
1"
0&
10
1Q
#180000
0"
1&
00
0Q
#181000
11
#185000
1"
0&
10
1Q
#190000
0"
1&
00
0Q
#191000
01
#195000
1"
0&
10
1Q
#200000
0!
0"
0R
1&
00
0Q
1U
1S
#201000
11
#205000
1"
0&
10
1Q
1V
1T
1%
1$
#210000
0"
1&
00
0Q
#211000
01
#215000
1"
0&
10
1Q
#220000
0"
1&
00
0Q
#221000
11
#225000
1"
0&
10
1Q
#230000
0"
1&
00
0Q
#231000
01
#235000
1"
0&
10
1Q
#240000
0"
1&
00
0Q
#241000
11
#245000
1"
0&
10
1Q
#250000
1!
0"
1R
1&
00
0Q
0U
0S
#251000
01
#255000
1"
0&
10
1Q
0V
0T
0%
0$
#260000
0"
1&
00
0Q
#261000
11
#265000
1"
0&
10
1Q
#270000
0"
1&
00
0Q
#271000
01
#275000
1"
0&
10
1Q
#280000
0"
1&
00
0Q
#281000
11
#285000
1"
0&
10
1Q
#290000
0"
1&
00
0Q
#291000
01
#295000
1"
0&
10
1Q
#300000
0!
0"
0R
1&
00
0Q
1U
1S
#301000
11
#305000
1"
0&
10
1Q
1V
1T
1%
1$
#310000
0"
1&
00
0Q
#311000
01
#315000
1"
0&
10
1Q
#320000
0"
1&
00
0Q
#321000
11
#325000
1"
0&
10
1Q
#330000
0"
1&
00
0Q
#331000
01
#335000
1"
0&
10
1Q
#340000
0"
1&
00
0Q
#341000
11
#345000
1"
0&
10
1Q
#350000
1!
0"
1R
1&
00
0Q
0U
0S
#351000
01
#355000
1"
0&
10
1Q
0V
0T
0%
0$
#360000
0"
1&
00
0Q
#361000
11
#365000
1"
0&
10
1Q
#370000
0"
1&
00
0Q
#371000
01
#375000
1"
0&
10
1Q
#380000
0"
1&
00
0Q
#381000
11
#385000
1"
0&
10
1Q
#390000
0"
1&
00
0Q
#391000
01
#395000
1"
0&
10
1Q
#400000
0!
0"
0R
1&
00
0Q
1U
1S
#401000
11
#405000
1"
0&
10
1Q
1V
1T
1%
1$
#410000
0"
1&
00
0Q
#411000
01
#415000
1"
0&
10
1Q
#420000
0"
1&
00
0Q
#421000
11
#425000
1"
0&
10
1Q
#430000
0"
1&
00
0Q
#431000
01
#435000
1"
0&
10
1Q
#440000
0"
1&
00
0Q
#441000
11
#445000
1"
0&
10
1Q
#450000
1!
0"
1R
1&
00
0Q
0U
0S
#451000
01
#455000
1"
0&
10
1Q
0V
0T
0%
0$
#460000
0"
1&
00
0Q
#461000
11
#465000
1"
0&
10
1Q
#470000
0"
1&
00
0Q
#471000
01
#475000
1"
0&
10
1Q
#480000
0"
1&
00
0Q
#481000
11
#485000
1"
0&
10
1Q
#490000
0"
1&
00
0Q
#491000
01
#495000
1"
0&
10
1Q
#500000
0!
0"
0R
1&
00
0Q
1U
1S
#501000
11
#505000
1"
0&
10
1Q
1V
1T
1%
1$
#510000
0"
1&
00
0Q
#511000
01
#515000
1"
0&
10
1Q
#520000
0"
1&
00
0Q
#521000
11
#525000
1"
0&
10
1Q
#530000
0"
1&
00
0Q
#531000
01
#535000
1"
0&
10
1Q
#540000
0"
1&
00
0Q
#541000
11
#545000
1"
0&
10
1Q
#550000
1!
0"
1R
1&
00
0Q
0U
0S
#551000
01
#555000
1"
0&
10
1Q
0V
0T
0%
0$
#560000
0"
1&
00
0Q
#561000
11
#565000
1"
0&
10
1Q
#570000
0"
1&
00
0Q
#571000
01
#575000
1"
0&
10
1Q
#580000
0"
1&
00
0Q
#581000
11
#585000
1"
0&
10
1Q
#590000
0"
1&
00
0Q
#591000
01
#595000
1"
0&
10
1Q
#600000
0!
0"
0R
1&
00
0Q
1U
1S
#601000
11
#605000
1"
0&
10
1Q
1V
1T
1%
1$
#610000
0"
1&
00
0Q
#611000
01
#615000
1"
0&
10
1Q
#620000
0"
1&
00
0Q
#621000
11
#625000
1"
0&
10
1Q
#630000
0"
1&
00
0Q
#631000
01
#635000
1"
0&
10
1Q
#640000
0"
1&
00
0Q
#641000
11
#645000
1"
0&
10
1Q
#650000
1!
0"
1R
1&
00
0Q
0U
0S
#651000
01
#655000
1"
0&
10
1Q
0V
0T
0%
0$
#660000
0"
1&
00
0Q
#661000
11
#665000
1"
0&
10
1Q
#670000
0"
1&
00
0Q
#671000
01
#675000
1"
0&
10
1Q
#680000
0"
1&
00
0Q
#681000
11
#685000
1"
0&
10
1Q
#690000
0"
1&
00
0Q
#691000
01
#695000
1"
0&
10
1Q
#700000
0!
0"
0R
1&
00
0Q
1U
1S
#701000
11
#705000
1"
0&
10
1Q
1V
1T
1%
1$
#710000
0"
1&
00
0Q
#711000
01
#715000
1"
0&
10
1Q
#720000
0"
1&
00
0Q
#721000
11
#725000
1"
0&
10
1Q
#730000
0"
1&
00
0Q
#731000
01
#735000
1"
0&
10
1Q
#740000
0"
1&
00
0Q
#741000
11
#745000
1"
0&
10
1Q
#750000
1!
0"
1R
1&
00
0Q
0U
0S
#751000
01
#755000
1"
0&
10
1Q
0V
0T
0%
0$
#760000
0"
1&
00
0Q
#761000
11
#765000
1"
0&
10
1Q
#770000
0"
1&
00
0Q
#771000
01
#775000
1"
0&
10
1Q
#780000
0"
1&
00
0Q
#781000
11
#785000
1"
0&
10
1Q
#790000
0"
1&
00
0Q
#791000
01
#795000
1"
0&
10
1Q
#800000
0!
0"
0R
1&
00
0Q
1U
1S
#801000
11
#805000
1"
0&
10
1Q
1V
1T
1%
1$
#810000
0"
1&
00
0Q
#811000
01
#815000
1"
0&
10
1Q
#820000
0"
1&
00
0Q
#821000
11
#825000
1"
0&
10
1Q
#830000
0"
1&
00
0Q
#831000
01
#835000
1"
0&
10
1Q
#840000
0"
1&
00
0Q
#841000
11
#845000
1"
0&
10
1Q
#850000
1!
0"
1R
1&
00
0Q
0U
0S
#851000
01
#855000
1"
0&
10
1Q
0V
0T
0%
0$
#860000
0"
1&
00
0Q
#861000
11
#865000
1"
0&
10
1Q
#870000
0"
1&
00
0Q
#871000
01
#875000
1"
0&
10
1Q
#880000
0"
1&
00
0Q
#881000
11
#885000
1"
0&
10
1Q
#890000
0"
1&
00
0Q
#891000
01
#895000
1"
0&
10
1Q
#900000
0!
0"
0R
1&
00
0Q
1U
1S
#901000
11
#905000
1"
0&
10
1Q
1V
1T
1%
1$
#910000
0"
1&
00
0Q
#911000
01
#915000
1"
0&
10
1Q
#920000
0"
1&
00
0Q
#921000
11
#925000
1"
0&
10
1Q
#930000
0"
1&
00
0Q
#931000
01
#935000
1"
0&
10
1Q
#940000
0"
1&
00
0Q
#941000
11
#945000
1"
0&
10
1Q
#950000
1!
0"
1R
1&
00
0Q
0U
0S
#951000
01
#955000
1"
0&
10
1Q
0V
0T
0%
0$
#960000
0"
1&
00
0Q
#961000
11
#965000
1"
0&
10
1Q
#970000
0"
1&
00
0Q
#971000
01
#975000
1"
0&
10
1Q
#980000
0"
1&
00
0Q
#981000
11
#985000
1"
0&
10
1Q
#990000
0"
1&
00
0Q
#991000
01
#995000
1"
0&
10
1Q
